ErinRoss_Lab6
…
Most common Orthopedic words: Patient

Most common Cardiovascular words: Left (heart is on the left so the makes sense), patient

mttoken.specialty.nostops <- mt %>%
  unnest_tokens(token, transcription) %>%
  anti_join(stop_words, by = c("token" = "word")) %>%
  group_by(medical_specialty) %>%
  count(token, sort = TRUE) %>%
  top_n(5, n)

mttoken.specialty.nostops

# A tibble: 209 × 3
# Groups:   medical_specialty [40]
   medical_specialty             token         n
   <chr>                         <chr>     <int>
 1 " Surgery"                    patient    4855
 2 " Surgery"                    left       3263
 3 " Surgery"                    procedure  3243
 4 " Consult - History and Phy." patient    3046
 5 " Consult - History and Phy." history    2820
 6 " Surgery"                    0          2094
 7 " Surgery"                    1          2038
 8 " Orthopedic"                 patient    1711
 9 " Cardiovascular / Pulmonary" left       1550
10 " Cardiovascular / Pulmonary" patient    1516
# ℹ 199 more rows
